Gather
…
## See spec(...) for full column specifications.

X16_candidates

## # A tibble: 2,906 x 30
##    X1    X2    X3       X4 X5        X6    X7     X8    X9    X10    X11   X12
##    <chr> <chr> <chr> <dbl> <chr>  <dbl> <dbl>  <dbl> <dbl>  <dbl>  <dbl> <dbl>
##  1 H4AK DUNB C         1 DEM   5.50e2     0 7.56e3     0 7.37e3 3.54e2     0
##  2 H0AK COX, C         2 REP   0.         0 0.         0 0.     0.         0
##  3 H6AK YOUN I         2 REP   1.10e6     0 1.32e6     0 4.88e5 2.70e5     0
##  4 H8AK LEDO C         2 REP   0.         0 0.         0 4.79e2 4.79e2     0
##  5 H6AK LIND <NA>      1 DEM   1.10e6     0 1.10e6     0 0.     4.21e3 17555
##  6 H4AL BYRN I         2 REP   1.37e6 33152 1.17e6     0 2.52e5 4.46e5     0
##  7 H4AL FINC C         2 REP   0.         0 0.         0 1.90e3 1.90e3     0
##  8 H6AL YOUN C         2 REP   1.79e5     0 1.78e5     0 0.     0.         0
##  9 H6AL MATH C         1 DEM   3.68e4     0 3.68e4     0 0.     0.         0
## 10 H0AL ROBY I         2 REP   1.40e6     0 1.85e6     0 4.92e5 4.55e4     0
## #  with 2,896 more rows, and 18 more variables: X13 <dbl>, X14 <dbl>,
## #   X15 <dbl>, X16 <dbl>, X17 <dbl>, X18 <dbl>, X19 <chr>, X20 <chr>,
## #   X21 <lgl>, X22 <lgl>, X23 <lgl>, X24 <lgl>, X25 <lgl>, X26 <dbl>,
## #   X27 <dbl>, X28 <chr>, X29 <dbl>, X30 <dbl>
